<?xml version="1.0" encoding="UTF-8" standalone="no"?>
<!-- Created with Inkscape (http://www.inkscape.org/) -->

<svg
   xmlns:dc="http://purl.org/dc/elements/1.1/"
   xmlns:cc="http://creativecommons.org/ns#"
   xmlns:rdf="http://www.w3.org/1999/02/22-rdf-syntax-ns#"
   xmlns:svg="http://www.w3.org/2000/svg"
   xmlns="http://www.w3.org/2000/svg"
   xmlns:sodipodi="http://sodipodi.sourceforge.net/DTD/sodipodi-0.dtd"
   xmlns:inkscape="http://www.inkscape.org/namespaces/inkscape"
   width="256"
   height="256"
   viewBox="0 0 67.733333 67.733333"
   version="1.1"
   id="svg8"
   inkscape:version="0.92.4 (5da689c313, 2019-01-14)"
   sodipodi:docname="youtube-randomizer-banner-normal-ico.svg"
   inkscape:export-filename="/home/Ben/Projekte/Privatprojekte/ytrando/public/favicon.png"
   inkscape:export-xdpi="96"
   inkscape:export-ydpi="96">
  <defs
     id="defs2">
    <inkscape:perspective
       sodipodi:type="inkscape:persp3d"
       inkscape:vp_x="0 : 114.3 : 1"
       inkscape:vp_y="0 : 1000 : 0"
       inkscape:vp_z="406.4 : 114.3 : 1"
       inkscape:persp3d-origin="203.2 : 76.2 : 1"
       id="perspective1504" />
  </defs>
  <sodipodi:namedview
     id="base"
     pagecolor="#ffffff"
     bordercolor="#666666"
     borderopacity="1.0"
     inkscape:pageopacity="0.0"
     inkscape:pageshadow="2"
     inkscape:zoom="2.8"
     inkscape:cx="138.04474"
     inkscape:cy="137.24083"
     inkscape:document-units="mm"
     inkscape:current-layer="layer1"
     showgrid="false"
     units="px"
     width="16in"
     inkscape:window-width="1920"
     inkscape:window-height="984"
     inkscape:window-x="0"
     inkscape:window-y="30"
     inkscape:window-maximized="1"
     viewbox-width="406.4"
     inkscape:snap-to-guides="true" />
  <metadata
     id="metadata5">
    <rdf:RDF>
      <cc:Work
         rdf:about="">
        <dc:format>image/svg+xml</dc:format>
        <dc:type
           rdf:resource="http://purl.org/dc/dcmitype/StillImage" />
        <dc:title></dc:title>
      </cc:Work>
    </rdf:RDF>
  </metadata>
  <g
     inkscape:label="Ebene 1"
     inkscape:groupmode="layer"
     id="layer1"
     transform="translate(0,-229.26667)">
    <path
       sodipodi:type="spiral"
       style="fill:none;fill-rule:evenodd;stroke:#ff0c03;stroke-width:23.45161285;stroke-miterlimit:4;stroke-dasharray:none;stroke-opacity:1"
       id="path1502"
       sodipodi:cx="133.38045"
       sodipodi:cy="193.03659"
       sodipodi:expansion="1"
       sodipodi:revolution="2.9342158"
       sodipodi:radius="97.173546"
       sodipodi:argument="-19.610167"
       sodipodi:t0="0.13913643"
       d="m 130.24885,206.1893 c -10.37517,1.44066 -18.04201,-8.6506 -18.07531,-18.20197 -0.0516,-14.7981 14.1926,-25.05556 28.17384,-24.21185 19.18474,1.15773 32.1413,19.75606 30.34837,38.14571 -2.29765,23.56651 -25.32741,39.26079 -48.11756,36.48491 -27.948256,-3.40416 -46.398847,-30.90272 -42.621447,-58.08944 4.492126,-32.33075 36.480347,-53.54817 68.061297,-48.75797 36.71404,5.56878 60.70487,42.05948 54.89451,78.03316 -6.63803,41.098 -47.63966,67.86665 -88.00503,61.03104 C 69.425013,262.92073 39.875446,217.40228 47.739947,172.646 56.502574,122.77855 106.54208,90.445789 155.68871,99.341891 c 5.1836,0.938289 10.28937,2.303279 15.25089,4.073229"
       transform="matrix(0.32270038,0,0,0.29379864,-9.8763019,210.53731)"
       inkscape:export-xdpi="35.054665"
       inkscape:export-ydpi="35.054665" />
    <path
       style="fill:#fb0404;fill-opacity:0.3985765;stroke:#e70000;stroke-width:0.38966483px;stroke-linecap:butt;stroke-linejoin:miter;stroke-opacity:1"
       d="m 49.709651,233.06687 -9.715804,16.45094 25.877202,2.36871 z"
       id="path1526"
       inkscape:connector-curvature="0"
       inkscape:export-xdpi="35.054665"
       inkscape:export-ydpi="35.054665"
       inkscape:export-filename="/home/Ben/Projekte/Privatprojekte/ytrando/public/favicon.png" />
    <path
       style="fill:#f4e3d7;stroke:none;stroke-width:0.1409988px;stroke-linecap:butt;stroke-linejoin:miter;stroke-opacity:1"
       d="m 0.35351415,237.0778 16.42687385,25.31895 1.716245,28.46317 8.090847,-0.33097 -2.451771,-28.62863 14.955805,-25.9809 -10.052263,0.33098 -8.826378,20.35446 -12.2588627,-19.858 z"
       id="path12"
       inkscape:connector-curvature="0"
       inkscape:export-xdpi="35.054665"
       inkscape:export-ydpi="35.054665" />
    <text
       xml:space="preserve"
       style="font-style:normal;font-weight:normal;font-size:57.94911194px;line-height:1.25;font-family:sans-serif;letter-spacing:0px;word-spacing:0px;fill:#f4e3d7;fill-opacity:1;stroke:none;stroke-width:0.30181831;"
       x="46.038261"
       y="293.92334"
       id="text44"
       transform="matrix(1.0420768,0.07752808,-0.07100065,0.95433988,0,0)"
       inkscape:export-xdpi="35.054665"
       inkscape:export-ydpi="35.054665"><tspan
         sodipodi:role="line"
         id="tspan42"
         x="46.038261"
         y="293.92334"
         style="font-size:57.94911194px;fill:#f4e3d7;fill-opacity:1;stroke-width:0.30181831;">R</tspan></text>
  </g>
  <style
     id="style5586"
     type="text/css">
	.st0{fill:#1DA1F2;}
	.st1{fill:#FFFFFF;}
</style>
</svg>
