<?xml version="1.0" encoding="UTF-8" standalone="no"?>
<!-- Created with Inkscape (http://www.inkscape.org/) -->

<svg
   xmlns:dc="http://purl.org/dc/elements/1.1/"
   xmlns:cc="http://creativecommons.org/ns#"
   xmlns:rdf="http://www.w3.org/1999/02/22-rdf-syntax-ns#"
   xmlns:svg="http://www.w3.org/2000/svg"
   xmlns="http://www.w3.org/2000/svg"
   xmlns:xlink="http://www.w3.org/1999/xlink"
   xmlns:sodipodi="http://sodipodi.sourceforge.net/DTD/sodipodi-0.dtd"
   xmlns:inkscape="http://www.inkscape.org/namespaces/inkscape"
   width="16in"
   height="9in"
   viewBox="0 0 406.4 228.6"
   version="1.1"
   id="svg8"
   inkscape:version="0.92.4 (5da689c313, 2019-01-14)"
   sodipodi:docname="youtube-randomizer-banner-2.svg">
  <defs
     id="defs2" />
  <sodipodi:namedview
     id="base"
     pagecolor="#ffffff"
     bordercolor="#666666"
     borderopacity="1.0"
     inkscape:pageopacity="0.0"
     inkscape:pageshadow="2"
     inkscape:zoom="0.7"
     inkscape:cx="645.42608"
     inkscape:cy="444.91557"
     inkscape:document-units="mm"
     inkscape:current-layer="layer1"
     showgrid="false"
     units="in"
     width="16in"
     inkscape:window-width="1920"
     inkscape:window-height="1051"
     inkscape:window-x="0"
     inkscape:window-y="0"
     inkscape:window-maximized="1" />
  <metadata
     id="metadata5">
    <rdf:RDF>
      <cc:Work
         rdf:about="">
        <dc:format>image/svg+xml</dc:format>
        <dc:type
           rdf:resource="http://purl.org/dc/dcmitype/StillImage" />
        <dc:title></dc:title>
      </cc:Work>
    </rdf:RDF>
  </metadata>
  <g
     inkscape:label="Ebene 1"
     inkscape:groupmode="layer"
     id="layer1"
     transform="translate(0,-68.4)">
    <path
       sodipodi:type="star"
       style="fill:#ff0003;stroke-width:0.26458332;fill-opacity:1"
       id="path50"
       sodipodi:sides="5"
       sodipodi:cx="82.316643"
       sodipodi:cy="137.74721"
       sodipodi:r1="106.19956"
       sodipodi:r2="53.099781"
       sodipodi:arg1="0.64038799"
       sodipodi:arg2="1.2687065"
       inkscape:flatsided="false"
       inkscape:rounded="0"
       inkscape:randomized="0"
       d="M 167.47425,201.20215 98.11468,188.44246 48.282556,238.34556 38.984453,168.43773 -23.875184,136.46547 39.73784,106.01974 50.720571,36.356699 99.333685,87.448033 168.98102,76.366167 135.41256,138.38808 Z"
       inkscape:transform-center-x="17.783742"
       inkscape:transform-center-y="-0.69057214"
       transform="matrix(1.8214096,0,0,1.7435258,-67.615683,-102.4186)" />
    <path
       style="fill:#000000;stroke:#000000;stroke-width:0.27259153px;stroke-linecap:butt;stroke-linejoin:miter;stroke-opacity:1"
       d="m -0.10998684,120.23169 26.81634584,57.96892 2.801708,65.16769 13.20805,-0.75777 -4.002439,-65.54656 24.414881,-59.48445 -16.410002,0.75777 -14.408781,46.60246 -20.0122,-45.46581 z"
       id="path12"
       inkscape:connector-curvature="0" />
    <path
       style="fill:#000000;stroke-width:0.27259153"
       d="M 73.935228,175.54852 A 29.217806,28.226701 0 0 0 44.717571,203.775 29.217806,28.226701 0 0 0 73.935228,232.002 29.217806,28.226701 0 0 0 103.15288,203.775 29.217806,28.226701 0 0 0 73.935228,175.54852 Z M 73.53466,186.34679 A 17.844434,17.239129 0 0 1 91.379133,203.58592 17.844434,17.239129 0 0 1 73.53466,220.82506 17.844434,17.239129 0 0 1 55.690745,203.58592 17.844434,17.239129 0 0 1 73.53466,186.34679 Z"
       id="path14"
       inkscape:connector-curvature="0" />
    <path
       style="fill:#000000;stroke:#000000;stroke-width:0.27259153px;stroke-linecap:butt;stroke-linejoin:miter;stroke-opacity:1"
       d="m 102.75271,181.61055 11.60707,-3.40994 2.80171,34.09938 c 0,0 0.40024,7.19876 10.80658,6.0621 10.40635,-1.13665 8.40513,-7.95651 8.40513,-7.95651 l -2.80171,-34.09936 11.20685,-1.13666 2.0012,50.39129 -10.40634,0.75777 -0.40024,-5.68323 c 0,0 1.20074,1.89441 -9.60585,2.2733 -10.80659,0.37888 -18.01099,-4.5466 -18.01099,-4.5466 z"
       id="path36"
       inkscape:connector-curvature="0" />
    <g
       aria-label="Tube"
       transform="matrix(1.2227947,0,0,1.0974355,-6.7029118,40.315267)"
       style="font-style:normal;font-weight:normal;font-size:15.67481422px;line-height:1.25;font-family:sans-serif;letter-spacing:0px;word-spacing:0px;fill:#000000;fill-opacity:1;stroke:none;stroke-width:0.39187032"
       id="text40">
      <path
         d="m 115.24199,79.704513 h 47.90104 v 10.294701 h -20.10099 v 80.116996 h -7.69906 V 89.999214 h -20.10099 z"
         style="font-size:75.23911285px;line-height:13.25;stroke-width:0.51118946"
         id="path52"
         inkscape:connector-curvature="0" />
      <path
         d="m 157.71956,143.34998 -2.65014,-32.80147 9.1869,1.10083 -0.88338,28.52467 c -0.19864,6.41429 2.10889,13.99551 3.67651,17.22521 1.56762,3.18934 3.91907,4.78401 7.05431,4.78401 3.76736,0 6.73825,-1.91763 8.91271,-5.75291 2.19972,-3.83528 3.97789,-13.47327 3.74128,-20.0876 l -0.88339,-24.69338 8.74524,-2.75207 -1.32508,61.21894 h -6.97846 v -10.41582 c -1.69404,4.11788 -3.66621,7.18611 -5.91651,9.20467 -2.22502,1.97821 -4.81666,2.96731 -7.77492,2.96731 -4.87987,0 -8.584,-2.42228 -11.11244,-7.26685 -2.52842,-4.84457 -3.79263,-11.92975 -3.79263,-21.25554 z"
         style="font-size:75.23911285px;line-height:13.25;stroke-width:0.51118946"
         id="path54"
         inkscape:connector-curvature="0"
         sodipodi:nodetypes="sccscscsccccccsss" />
      <path
         d="m 232.93702,136.26481 c 0,-8.19539 -1.06194,-14.61444 -3.18582,-19.25715 -2.09859,-4.68308 -4.55196,-4.82296 -8.24345,-4.82296 -3.69151,0 -7.0409,0.13995 -9.16478,4.82296 -2.09859,4.64271 -1.82281,11.06176 -1.82281,19.25715 0,8.19539 -0.27578,14.63463 1.82281,19.31771 2.12388,4.64271 5.03158,6.96406 8.72308,6.96406 3.6915,0 6.58656,-2.32135 8.68515,-6.96406 2.12388,-4.68308 3.18582,-11.12232 3.18582,-19.31771 z M 209.19509,112.587 c 1.46648,-4.03713 3.31223,-7.02463 5.53725,-8.96245 2.2503,-1.9782 4.93044,-2.9673 8.0404,-2.9673 5.15799,0 9.34253,3.27008 12.55364,9.81025 3.23638,6.54016 4.85457,15.13926 4.85457,25.79731 0,10.65805 -1.61819,19.25715 -4.85457,25.79732 -3.21111,6.54016 -7.39565,9.81024 -12.55364,9.81024 -3.10996,0 -5.7901,-0.96892 -8.0404,-2.90675 -2.22502,-1.97819 -4.07077,-4.98586 -5.53725,-9.023 v 10.17359 H 202.1787 V 150.28218 75.889417 l 9.04648,0.194602 z"
         style="font-size:75.23911285px;line-height:13.25;stroke-width:0.51118946"
         id="path56"
         inkscape:connector-curvature="0"
         sodipodi:nodetypes="scscscscsccscscscccccccc" />
      <path
         d="m 280.19565,130.70027 0.48785,5.41612 -31.88548,4.46004 q 1.48219,11.37077 5.86859,16.85096 4.41869,5.41472 11.31592,4.44995 3.9951,-0.55882 7.58545,-2.64539 3.62803,-2.09185 7.03975,-5.73782 l 0.94319,10.47117 q -3.50362,3.04944 -7.30408,4.92168 -3.80049,1.87222 -7.83329,2.4363 -10.10084,1.41289 -16.86374,-7.14739 -6.72523,-8.5655 -8.16711,-24.57316 -1.49067,-16.54927 3.21469,-27.01835 4.73762,-10.53454 14.23543,-11.86306 8.51787,-1.191458 14.24663,6.90408 5.76104,8.03007 7.1162,23.07487 z m -7.22762,-2.27965 q -0.89393,-9.07649 -4.50999,-14.05506 -3.57843,-4.98384 -8.70421,-4.26685 -5.80423,0.81188 -8.83778,6.53776 -2.99587,5.7206 -2.66706,15.30272 z"
         style="font-size:75.23911285px;line-height:13.25;stroke-width:0.51118946"
         id="path58"
         inkscape:connector-curvature="0" />
    </g>
    <text
       xml:space="preserve"
       style="font-style:normal;font-weight:normal;font-size:52.59786987px;line-height:1.25;font-family:sans-serif;letter-spacing:0px;word-spacing:0px;fill:#295477;fill-opacity:1;stroke:none;stroke-width:0.27394724;"
       x="43.972561"
       y="272.54935"
       id="text44"
       transform="scale(0.99706504,1.0029436)"><tspan
         sodipodi:role="line"
         id="tspan42"
         x="43.972561"
         y="272.54935"
         style="font-size:52.59786987px;fill:#295477;stroke-width:0.27394724;fill-opacity:1;">RANDOMIZER</tspan></text>
    <text
       xml:space="preserve"
       style="font-style:normal;font-weight:normal;font-size:13.80581284px;line-height:1.25;font-family:sans-serif;letter-spacing:0px;word-spacing:0px;fill:#000000;fill-opacity:1;stroke:none;stroke-width:0.34514531"
       x="58.548763"
       y="228.81555"
       id="text48"
       transform="scale(0.79138612,1.2636057)"><tspan
         sodipodi:role="line"
         id="tspan46"
         x="58.548763"
         y="228.81555"
         style="stroke-width:0.34514531">Developed &amp; Maintained by Benjamin Krippner (     @bkrippner)</tspan></text>
    <image
       y="272.35596"
       x="307.21909"
       id="image80"
       xlink:href="data:image/png;base64,iVBORw0KGgoAAAANSUhEUgAAAgAAAAIACAYAAAD0eNT6AAAd3klEQVR42uzBAQEAAACAkP6v7ggC AAAAAAAAAAAAAAAAAAAAAAAAAAAAAAAAAAAAAAAAAAAAAAAAAAAAAAAAAAAAAAAAAAAAAAAAAAAA AIDZs5caBoEoCqAjAQNNkICESqgEJCChTkgVIKESRgIeMNDO4pFMuiOhpCnnJHc9n819kwEAAAAA AAAAAAAAAAAAAAAAAAAAAAAAAAAAAAAAAAAAAAAAAAAAAAAAAAAAAAAAAAAAAACAI1weS1NyjfQl 98hY8qySS147J3+sMVbr99W+mgQAbCr4Nkp0iGKdomznHQr86Myx9ynOMsTZ2gQAZ1RKsCu5rSX/ pRf7ryevw0HcRZcA4F9UL/rxpEW/eTBYvxd8KfBm7w5rGwTCAAxXyiRUQiVUAhIqAQdIQAoSKgEJ JFPQ78eR8KfL2I5ycM+TvAa25A6ODwpwCLFZXW32mzRfFDycFACwu3SH2qZn3VOGjU6/KP2th/mU 4AIAW1rc4Q8ZNjHlbXBCAEAW6bW7Jurd4R+qKf3PGjMEAKy6y/cM/1Q9nQ4AsLTc9LuDvm+vdY1R 52IAoFI2fbkYAKhE+tJea9PXm4uB1pcKAU5iHuTzTF8rehogBDioWLxvpveV6W0C3xoAKFm62384 4tcGjdHDqQBAQWJRvrrb14eaot7gIMCOYhG++yqfdmyI7hcAtjcP9TnmV0GNhgYBNpI2/tYxvwpu iloXAgAZpHf3Oxu/DtQUdb4pAPD3jb/PsBhLe9a7EACw8aveXAgA/PCMv8uw0Eol15kRADDcpzoz LAjULRbAxsavipui5gJQi1j0bt7jl77nRr83AJxaLHJfvtwnvW0wKAicigE/yaAgUBnP+SXzAUBF YvG6Ou6X/t3glweBQ5hf68uw8ElKeW0QKJrpfmnTvC0AlMWQn/TRDAkC+3PXL+3Si717rW0YhgIw akiFUAiFEAiFMAaDECiFEAiDEArzpE7Kv2qd49c9n3QgJHYT59bTAElt8qsfuuBpgKR6+dUPXfE0 QNL5OeEP3fpIklS65xjfrcBNCjjPZpywpGLlG8rNND8Yxp7dkiT986DfWuCGBNS3OiAo6a1Rvh75 w/A2o4QleeQPMXklIOl1vu2HaX0mSfrt+L7fv/fB9B7OBUg6Lv4Xg30gjC/nAiSlfCNYvO+HcPZs SZJiZqofhGd6oBQt3/cDT2uSNH8/B4B83w9kR5vDgdLEGe4DGBokBStf2BeH/YAXdpsAaaLyBX21 +AN/2ARck6SxyxfyUuCGAMTjM0Fp1Cz+gE2AFKx84d4LXPwA9yRpjHzjDxRmVoDUexZ/4CQ2AVKv WfyBk9kESL1l8QcqsQmQesniD1RmEyC1zuIPNGITILXK4g80ZhMg1c53/kAnDAuSamXCH3yzd4c1 CgNRFEafBCQgYSUgAUk4QBISKgEJWGDCX0JI2NfdKfd8yXHQSZtO+4bJeAiQ1s7NH5iUhwBprcYC OzYsUoC1OEVQ6s55/sAG3IafktSTmz+wIR4CpI7GQtoNS8OiBPgry7ArSZ/n5g9s1FKSDPoBIhkU JH1w8z81LD6A/3YqSf71ByKZESD54h8I5M8Aqd5/8X9tWGwAs7n6M0B6/QBwaVhkALO6lKSnm/+5 YXEBzO5cksz4ByIdS0rPR39AIB8FKjtjfoFgxgUrN5P+gHAmBSov+/4AvgdQWOOC39v3B3i4DfuS ErLvD+DkQIXlkB8AhwYprHGBHxoWCcC3OpT0bZnzD+C8AAVm1C+AUcEKy6t/AFsBCsurfwBbAQrM q38AWwEKy6t/AFsBCsurf4BfsxWg7WXgD9zZO3fcKIIoitYSvATnJJOyAlJHxA5YAStgBV4BkkNL SEQkkDAJEhIRiYmQLEFCYiFkfgab5nYJI0zjadzv1aerz5FOZnoGT3nep7peI7rIgCCYD1qwK4dF j4iIUq4CwBzQYl07LHhERJRyHQBqRwt112GxIyLiZXcDQK1ogW7xmF9ExCS+54ZAqBbO/CMiJpXZ AFAfWpjbDosbERE3ux0AaoIb/xARs8gNgVAPTPxDRMwqEwKhDpj4h4iY1aMAUBqO/SEiFpFjgVAO jv0hpvHWo4/d7SefunsvvnZ7L09HvfP0c/z5Gwcn5tfG2cixQCgH8/4R7V4E+sdvvndvT847Kx9O f3TP351dJAYkBW3LcwIgP1T/iJOMAfnusy99wI/BOgeHx+cxIVBnwfz+sSrpAkB+GPqDeD1Vjceg Xxp1GWLH4eZDkoFGpAsA+WDoD+L/V/uqvF1a+yl48PpbvwVh/n/mVO+3/32ytcFwICiBFtu+w4JF bNZfgT9bi9+K7hmoPhHQ9kV8n6LvpJiv15j7ASA1VP+IG51V4P9HIlDd1oDeT+xU/Im2U8zXbVC6 AJAWqn/EK1vT1bb6r4uSmOIt9t+Bf3jKwXztRqULAOmg+kccqkBZxc193iiZKbItoFZ/DPwbkhPz azQsXQBIA9X/dHXsiyNYDdpS1X8V91/lCbhq68ctiBGKdyYql8cFgz+c+zdViLFtKavbX0XbXv9S 0ByBJGtX1xyckhg5tWB+zcZlLgD4w9Q/n0BxeMzxpbmrzy8GoqWhBNati6WO2JRtkyRJSIMyFwD8 oPq3V/9/3Wltvi6WUZ+nkri2W/5jKHhPbfHHxEl/D1VvRTQgXQDwgyf++VT/tDLnLcF/kASMtffd Rh7r39M540mBUAKe9z9dfXFR0TSgWt/mINYaCu6DBElVfr+u3RMljS42f4YL8ygABHvwp/qfvs/p UklhWRXYmr/T33JCQN2spL8ftswmuxMAjAnA2mEhLlK1Pt3aqVhG2v5l4eSMyXUAMAT/lcMiXKT6 0nLfU8X8EvzLQuvf7CoAMPgnr/riMu+pYlmXeNSvJnjgj4uMBwaO/uVW+5YuN1bhT/bO5qaRIAij HQIJIDkNbr6RjkNwBk7AEhFwIgBC8GmdwJ5XHDaApWY0SIDWC+v5qrur6z3pOyEQ0pRdNfXbRtNz gHawL0MmRgLhqgBgJzC+lLIvLml3NaorOv7bolw4hGbtCgCjf3U0jUL9EY9YoXqi7t8OnL+LGAmE /3L+W4HRpdXxrNkRTxBQX5n2+/cINu+mbQGg+c9fU/1fBV+I9XT3SOq/JWbrq0s31ri5+u8MKpoB gea/GlLDxsA6GvGmfxTMaV/bbzP/rpVtWBpEMyCU9QEAm/8qzv8bnEHtQNNdf6jPUvOXHBZiaRD3 AWB9AHASGFpaeToSe7thNMpJyrINfIt5fbA5f9k1Qfv5ajsYXGwGhH86/43AyFLLu4nMUp285Yjl GbTBF8Hs1+n9N6dPhkyjTQG4EADsBQaWWt4BAKNSevH2Xxf7jFwqn72/JsjSIB/tCwCz/z6q2UhG t/N63T/59GzA3x31W+Bqzn7OvFgwMH9mrBzAsaA6YicAcPjHS7XfJi31ydsP+/67xxz15Ojlnw/q /hwIAgFmFAeBYaWX+guOvgA/TYETxIVLgVfrUABI/+vVIgBY3rB4G+LgTxpo+qMMACJI/+vUKgB4 tzSIkkCH/Rqgg2U/ElEGANL/arUOAJaSAFMCpP+HhI5/mSgDAOl/tXoIAKiRkv4fEZy/VJQBgPS/ Wj0FAEu6lAZBuv/D8/M3zt9BLAXKjhnBTmBIqOO6sjUIkg34KHMo3PyPAouv3LQrkBt2/2tVYxPg imwAX6TU/0OB83fVqUBezABuBEaEggQAC/Y/5p4UYPd/DGhmrSJOBGeF0796RXEulgJPuzcgQpCW HRr+qokTwVmxh/8gMCAUeLd8xrIADYB9g/OvqocCObGH/yIwIPRJEcl0U6C3SQ3IaYed6KVAPhj/ 89OPXzE7zK3hKkV/ABMAfcJ632ZiK2A2GP/z0/Ecu8Y8eiAA/cFp66ZiHDAb9tCfBYaDBt4yZ2/K 0/6A4QIB6AfG/LrQc4FcCIwGJZkzHy0jAH1gvRjD2FR0FciDPfDtrcBo0Hh9AN8IBEKvFo42pTEq ZkernyWSalsgB/aw9wKDQZc1p85Hxhq2QqZuo+xpGJnjGeffofYFckD93193jzneNF/Zu5fbNmIg AMNbghsw4JJSgg6pJxW4glzcQVxCcvIpgLvIIRdnVpCAILFsyUvxMfx+4Ad8NilwlpxH3HQMlcAl AGhPzMvYvI4srjyAWVD/X8eMzwBvPA8McyuAtsTb/+Y1ZHH1A5gB9f/1zFIN8JFbgXgC6TZXAG0R AHSrfgDZUf9fz8hw3n8Zz0xc966BUFfZ3miLAKBb9QPIjv7/dR29KVBJIhjo4mYAbREAdKu5ANkx /7+usyQDfuSZIIKjNSlv8//YLICxEAB06/cFeTH/v42mz72fQHi4HaiSRCgAaIsAoF8X5EUDoDa6 Bbg8IIhDIprF7G8IiucPfPnhWaYlAoCu1RAoKxoAtdOhs30uQdwSHIOCNahSnTEoAoCulQiYFQmA 7YyvWGNor0AcJsfAYP+EEMHB+oygHXDHCAC6ViJgViQAtvXzt18vqEscNkf3QULoNqYx5gB0rUTA rBTYHNzm/msVmBkBQN8uyIcOgH2oORBmRwDQvToCZiMWdVdgY7CABtJgZgQA3ftpQS5UAPSld2jM SiRrbv798KoaDZyNWNSHAhuDBZUPgBlp0f2RF/mwIBcqAPoz8gGmGhkMCACGUCVANgpsCl5BQQBm o0a7Z6oEQHA4/O9uC2wKvt/yN75uBAHAaTb/zljFuwU5MAOgjnH4H5vPrH8LAgABwKiaCZCFtb9z gQ3BC8v7DoGAIADQBng0zQTIghLAOsZhf3KQTZQ+rU8E5wQBqgOQFgHAMCoFzIISwHq+R3zhnzX3 /v5JnwDk4/5JE6BBVAqYhVjMxwIbggUCgH9vBr7+/H2cYvfa8CBtg5EKXQCH8XFBDmIxnwtsCBYO AF4jDvy/R9y6CUAq9AAYxucFOSiwGXie+8MbgB4Ao7tgfGIhb24LbAZq7wu8KAGcyZsFY6MHQF0N +QFOJsBu/n2xqnoBjI4AoK5r4h6A/4nbsc2/L1ZVADA6sYi7AhuBF7QDBqACIIG7BWOjCVB9/7B3 x7ZRBFEch18jU4/7oREaQCIndQFOyC8jogkiCwJg1hESkb3vdv2f/T7pV8G9PY3uZmYd3QMnABbI ZUDpLACOz0ZA+N+85XL3s6VDswBINz/Ezw2DoFf04evzH+DfS69sAAzsY5HNLYDHZx8A2AC4QG4D TGcBcE7e6gc2AIZnAZDOAuCctvv9ARsAg7MASDc/xFvDIOiVbRueADcABncrsjUMgZwGgDeb78fY /SzpnIpso2EI9La2nz3h6vz/n1uRbTQMgWwGBP//X68i22gYArkTAPz/f72KbKNhCLSreQmKXwG4 Juf/syuyjYYhkDcEwlvM47C7nx+dV5FtNAyB9rfthIarmbdi7n52dF5FttEwBNrfw6PrgbkW9//n V2QbDUOgnrbjUHAVn745/pdekW00DIH6ciyQq3D8L78i22gYAvXlrwCu4MfP37ufFZ1fkW00DIF6 86IgVvfl+6/dz4nOr8g2GoZA/W1fkLCqefR19zOi8yuyjYYhUH/zbYH2A7Aku//Xqcg2GoZA98ki gBXZ/b9ORbbRMAS6X3NT4MuGKVjFw6PLf1apyDYahkD3zSKAVfj5f62KbKNhCHT/LAJYgbv/16rI NhqGQMdkTwDp5gzvfg70fiqyjYYh0HHNL1AvDiKSV/+uV5Ftfoi30TAIOjbvDSCNs//LdSuyzQ/x qWEQdELzLnX7Aohg89+SPRXZLACym38JvPy0Cu+ZzX9LZgGQzgLgL3t3bBtXDANgWCN4AQMewW06 d2k9gkcwMsFtkBFuAsNFVnDlxlVqT5A6KUNtEOR4ehL1/cDf3V1D4p2kR1I1jOPV2GUpEMR8xCmV 4r+aWgCsTgTxnJAInMB4yPbaAK8FMBUu/inr94a1iSCeEhKBE2khgJn48mLyX1FPDWtjAVBXCwEc jda/0loArE4E8SkhETi5395+KxbEcKJT5eLc5bQ+NaxNBPEhIRG4iHEqYDGAIcTAqovzlVP70LA2 FgB7G90DxgvjKtj9l9cCYHUiiDcJicBBxqVAfffe3+33P+/+kP2nFqv4TP9s/07/bv8NbYO4Gnb/ W3jTsD4JicCBKurD7Nj917ehBhHMz9uEhOAYe181MCt2/1v42VAD0wDXsr8GAGbF7n8LTQGsQgTz NSEhOFCFe5gRu/9tfG2ogWFA69lb+YDZMPVvGw0BqkIE8zkhIThYVfyYCTP/t/K5oQZmAaypUwDM ghv/ttMMgCpEMO8SEoIH6BQAMxCzJS7OZS7lXUMdEhKCB+gUAEcTi9CL85hr2VCLCOrHbUJicLy9 8ho4Cm1/2/nRUAutgOtqLgCOwnW/W6oFsBpaAde2v4MFRhKFf9r+9lQLYDUiqI8JicEDNRwIIzm9 /7k4Z7mkjw21iKDeJyQGDzR2Yy4KwhB+/lL4t7H3DfVISAwebL/uF7g2X384+t/VhproBKihegBc Ez3/W6sDoCoR3HNCgnACXRmMa+Dof3vPDTVxJ0AtFQUik6gvcfRPdwBUxZ0AtYzZ7BYBSEPVP90B UJyEBOFEWgQgAwN/qABwAxQC1rMvAvoDHPjPWf9u+qMCwB1QCFhXhYEw658KAPGXvTu2qSMIAjC8 JVACbbgC2qAGV0AF0AASFThyASSWnDqBlMCJE/QCB5YlB56RnBiEefj2pN2d75f+Cm6l2ZuZndEI WFTbA6HuTw2AMBGwqNHJHWldfQFQ96cJgHh+CTh0OCwc2KjpKgngH+/91f35l4eGGsTHvu1wYDiB Ud+VDYD3/nzN24YaWA1cy/jTMz4YSZL7JDafKS6nFcBVMBCoprFNUFmgOJr+aAAQDAQqrItATeKb bz47XNOGWugDYJQG8o9Qj0ABPn/7tfm8cFnV/6thHgCfPh28vv/pMrAgOv7p/T/MA+DRl4HMDOQ7 8ewYx7wI/vT+H+YBcFPPQDwnzJcEmSXIdHLqcjA4nvvR+3/YC8DdjCdlLgIDIvjT/H+8dgE473CA WNTre7MFRkTw5xs8b6hJfPyTDgeIxcySwN2jZsEREfz5Rk8a6pI7oDscIhYxmgOl/AdF8Kf9//Ac kN3Nv/5s/MOYCP70/A+eA7K7/vrHRvCn53/Ycgl46HCYuJjx9E+tf3AEf/6nDw1I4jBcdThQXES7 AubAkB9u8KoBygB8sjZYun8CBH9K/6MbygB1FfjnIrIzgj+l/9EPZYB6CvzzEcOXNn93llf6H8oA VRX45+T9px+bvz0p/Q9lgIL+ae4T+CdDpz87Kv2PFy8AFx0OGAcz/hwN8ZkUzX7srOE/ePECcNrh gHEAzz76258d9X7u4GkD7AZYzwz6GTS+fje8Z2bi0pZrljefB9Lsf1gRvKiRGs5AkX/6gv4iZMr/ 3Qf1fu6i1b84akXwocNh4w7GeN7s4FfTX5DLL1L+3M2D1b849hJw0+HAsUOwj0U8+YdvJv/CRPZG lz/39qbhN3t3c9tGDEVReEpxKSrBJbkDt5OdqkgD2aeCbPIuMAtHMGLBQ86QM98BDpCVogSE3g8f STyZANwaLLhTWW3ZBOTNn/PYws9nxlR/a2WvnX8hambDlD/38LYA7gT4frD+8evPPz/eFaw/Mz/q MX9+VOseIR2d5gkl6ew/mpDzog0W3umsH20VOuz1cyad/YdhwFa6ShffIN0fE/7cW8N/MAzYw/yY Z1sA+GLIz7l+HqXhP3ggqKe1LWBvH4+kQ6Tdz6P18A82JQH3BovwEtad++YDYLqfo3hfgI0JwGuD hXgpJQLXpe5ssM/PUXxdgGV7EuBIoEQAAj/n0dE/tMH7ABIBCPycSvf+ow2OBLaxJsENC56AdbhP 4OeoOvqHttSCemuwMPnhrX7MRXVx8jaD4T6O7tsCtEQXoL0VSBJQbA8MTt314Bw/Z1H1jz7Uwnpv sED5+V0CugIDsVb72vyczfcF6EEtrpcGC5RfdAVqaNCswAHU3n6SME/zcmZfFqAXrgfez1SfqUJ/ /rZF0Is16Gvx8wy69hd90QU4xjUZ8PZAA6q9n5v6BH2eTdU/+qMLcKy1TZDglcrVAOHzg3xJoLT3 eVZV/9gHXYCxrO5A5gYkBA9P79ZZ/QxXbv7/JSdQ9Y/9cCJgXNeEIG3uSwwT1oxEkh8VPq+qc//Y F/cCzGUFxiQFqYqTFEzZKajvnO+exCb/FtU96dw/jsLtgPObIJp5giQGa8fgsK5BJvLXvz/fJ+b7 CfSk6h+joQtwfrOdkAC8mqC82Uo48lmCO6n6x8x4KZAkD9GLfzievD3dYDGTJL33j5moxXhrsKBJ ks95W4BRqAV5b7CoSZL/974AI+FyIJLcRZf+YDxcDkSSXfXcL8bEsUCS7KZjf3/Zu6MbBGEoDKMd hREchRHYjFEYgVFcwfbFJx80uSaU/3zJ2QCMoe2trp1jgQB/4difrp8NgQClbPzTHPWH9VHwwAPQ jd/UJs2SewIASpj3r7kam1VMCAQw8U+BmRAIYOKfQjMbAMCZfwVmKQDg90//zvzrFlkKAPDpX6FZ CgDw6V+BWQoA8OlfoVkKAPDpX6EZEARg4I9C6w/6WfCyANzF2aSE+sO+uDYY4H3N79KklPoDvxa8 OACzW5uUVn/w94KXB2BWe5MSG8dd7AcAQp2O/Cm6cc+1/QBAmKc7/iX7AYA81v0lo4KBMEb9Sh/+ BBwFLxfAVR1NkvsCgCjm/Es2BQJhbPqTvvwTsBW8cABXsTVJLg0CorjkRzIpEAhj0p/k5kAgjBv+ pIKTAf4EADMx5leqyMkAYCJ2/L/Yu6PahmEogKKGUAiFUgiFVAaFMCiFEAiFEApzPvozbWo1PSfP 9rnSgRD7qXUcKTJDANABm7/UovpgXQIeUIBWLkVSm9wRACTlXX+pdYYAIBmbv7RXhgAgCZu/tHcu CgIO5qIf6agMAcBBbP7S0RkCgJ3Z/KUsGQKAndj8pWwZAoDGbP5S1gwBQCM2fyl7hgAgmM1f6iX3 BABBvOcv9ZYhALD5S5NmCABs/tKkbV/o8ilh4EOrr/pJA7V9o9sQAPievzRh24NdLQGLBDCexeYv DVx9wE+GAOCXzf9UJI2fuwIA7/hLk1Yf/FvA4gH061Ykzdn2qo/DgTCd1Wt+kl6HA58BiwqQ39Nh P0k/Dwc+AhYXIK+Hw36S/hoE7gGLDJDPvUjSmyHg6lwADGOtrkWSXBoE03C5j6T/nQtwXwB068v/ /ZKKvwRgGn7ylxRXXVDO/hKA9JbqXPTN3h0VOQhDARStxEpAAhLqAAlIQUIlIAEL+95H/9qd2S2Q hJwzcxV0pkB4CcDenB4oVZtT/YBj5bfCHRwkVdPq+/3AaXK4yJkBUvEmg35AEVYDpCJ56gfKsxog nZqnfqAuVgOkQ/PUD9Qrn0zsFJB27+GpH2hCHj/q64LS1y2O8gWaFH9eg1MEpX+d5jfcAFpmSFAy 5Ad0LI8o9VpA+tjiGF/g0uwWkEz3Ax0zH6DO854f6Ndr26AbAXXUZlsfgEFB9ZULP8Avg4LzDn+0 Uk3NBvwA3Aion1z4Ab64EZjMCKihtmhy4QfYgWFBNZDhPoCj5J9rNDhHQBW1RoMLP8BJ4g/37mRB FWyJ7jcAysivpUWz1wM6oS2afaEPoCK5BBuNXg/ogNZotMwPULk8W92qgHZ62ndOP0BrXkOD0XOH C4L6aDHUB3AhuS87enhFoDet0cPefYCLyyGuaHIz0HVrNBnoA+iUm4GuctEH4OPNwGhm4FI98ze1 vA/AnwYI7SZori2aDfL9sHMHRQjDUBRFLSKhEpAQB0ioBCREQiUgAQu8LP6GZacFSs+ZueuWVZI/ pABsoqYDvj74k/V0NdoHYHfjfnhqqZsQfLRn6qm5ow/A19WEIM3+Q7BpS5qd8AE4jHFCtSlYt9g7 3QPwV8YpNl1SS/eTbgyWNH57SxcnewBOa1xTSzUxqM1BP+j3CR6p1yJfJ3pX8QBg3bXEsYiOptTS 6JZ6tdNEYXl7xpzq+VO9l2t3AAAAAAAAAAAAAAAAAAAAAAAAAAAAAAAAAAAAAAAAAAAAAAAAAAAA AAAAAAAAwIs9OBAAAAAAAPJ/bQRVVVVVVVVVVVVVVVVVVVVVVVVVVVVVVVVVVVVVVVVVVVVVVVVV VVVVVVVVVVVVVVVVVVVVVVVVVVVVVaU9OCQAAAAAEPT/tS9MAAAAAAAAAFwCyYo6+veMl5UAAAAA SUVORK5CYII= "
       style="image-rendering:optimizeQuality"
       preserveAspectRatio="none"
       height="22.829754"
       width="22.829754" />
  </g>
</svg>
